{
  "name": "wildtalents",
  "title": "Wild Talents",
  "description": "Testing wildtalents using simple World-Building",
  "version": 0.1,
  "minimumCoreVersion": "0.5.6",
  "compatibleCoreVersion": "0.5.7",
  "templateVersion": 2,
  "author": "Skafos",
  "esmodules": ["module/simple.js"],
  "styles": ["styles/simple.css"],
  "packs": [],
  "languages": [],
  "gridDistance": 5,
  "gridUnits": "ft",
  "primaryTokenAttribute": "health",
  "secondaryTokenAttribute": "power",
  "url": "https://gitlab.com/skafosfoundry/wild-talents-ore",
  "manifest": "https://gitlab.com/skafosfoundry/wild-talents-ore/raw/master/system.json",
  "download": "https://gitlab.com/skafosfoundry/wild-talents-ore/-/archive/master/wild-talents-ore-master.zip",
  "license": "LICENSE.txt"
}
